\relax 
\providecommand\babel@aux[2]{}
\@nameuse{bbl@beforestart}
\catcode `:\active 
\catcode `;\active 
\catcode `!\active 
\catcode `?\active 
\babel@aux{french}{}
\@writefile{toc}{\contentsline {section}{\numberline {1}Nombre Premiers}{3}{}\protected@file@percent }
\@writefile{toc}{\contentsline {subsection}{\numberline {1.1}Définition}{3}{}\protected@file@percent }
\@writefile{toc}{\contentsline {section}{\numberline {2}Théorème fondamental de l'arithmtique}{3}{}\protected@file@percent }
\@writefile{toc}{\contentsline {subsection}{\numberline {2.1}Définition}{3}{}\protected@file@percent }
\@writefile{toc}{\contentsline {subsection}{\numberline {2.2}Existance De La Décomposition}{3}{}\protected@file@percent }
\@writefile{toc}{\contentsline {subsection}{\numberline {2.3}Unicité De La Décomposition}{3}{}\protected@file@percent }
\@writefile{toc}{\contentsline {subsection}{\numberline {2.4}Écriture Réduite D'une Factorisation En Facteurs Premiers}{3}{}\protected@file@percent }
\@writefile{toc}{\contentsline {subsection}{\numberline {2.5}PGCD Et PPCM}{4}{}\protected@file@percent }
\@writefile{toc}{\contentsline {subsubsection}{\numberline {2.5.1}PGCD:Définition}{4}{}\protected@file@percent }
\@writefile{toc}{\contentsline {subsubsection}{\numberline {2.5.2}PPCM:Définition}{4}{}\protected@file@percent }
\@writefile{toc}{\contentsline {subsubsection}{\numberline {2.5.3}Lien Avec La Décomposisition En Facteurs Premiers}{4}{}\protected@file@percent }
\@writefile{toc}{\contentsline {subsection}{\numberline {2.6}Algorithme de calcul De Décomposition De Facteurs Premiers}{5}{}\protected@file@percent }
\gdef \@abspage@last{5}
