\babel@toc {french}{}\relax 
\contentsline {section}{\numberline {1}Nombre Premiers}{3}{}%
\contentsline {subsection}{\numberline {1.1}Définition}{3}{}%
\contentsline {section}{\numberline {2}Théorème fondamental de l'arithmtique}{3}{}%
\contentsline {subsection}{\numberline {2.1}Définition}{3}{}%
\contentsline {subsection}{\numberline {2.2}Existance De La Décomposition}{3}{}%
\contentsline {subsection}{\numberline {2.3}Unicité De La Décomposition}{3}{}%
\contentsline {subsection}{\numberline {2.4}Écriture Réduite D'une Factorisation En Facteurs Premiers}{3}{}%
\contentsline {subsection}{\numberline {2.5}PGCD Et PPCM}{4}{}%
\contentsline {subsubsection}{\numberline {2.5.1}PGCD:Définition}{4}{}%
\contentsline {subsubsection}{\numberline {2.5.2}PPCM:Définition}{4}{}%
\contentsline {subsubsection}{\numberline {2.5.3}Lien Avec La Décomposisition En Facteurs Premiers}{4}{}%
\contentsline {subsection}{\numberline {2.6}Algorithme de calcul De Décomposition De Facteurs Premiers}{5}{}%
